request method  = post
url  = /amir
request method  = post
url  = /amir
request method  = post
url  = /amir
p parameter = 9
q parameter = 8
request method  = get
url  = /asere
q parameter = 8
request method  = get
url  = /asere
request method  = get
url  = /weather
city-code parameter = 8
request method  = get
url  = /weather
city-code parameter = 1
Status = 404
{
	"name" : "city 1",
	"todayTemp" : 23
}
request method  = get
url  = /weather
city-code parameter = 1
Status = 404
{
	"name" : "city 1",
	"todayTemp" : 23
}
request method  = get
url  = /weather
city-code parameter = 2
Status = 404
<?xml version="1.0" encoding="UTF-8"?>
<weather>
	<name>city 2</name>
	<todayTemp>13</todayTemp>
</weather>
request method  = get
url  = /weather
city-code parameter = 2
Status = 404
<?xml version="1.0" encoding="UTF-8"?>
<weather>
	<name>city 2</name>
	<todayTemp>13</todayTemp>
</weather>
request method  = get
url  = /weather
city-code parameter = 3
Status = 404
{
	"name" : "city 3",
	"todayTemp" : 29
}
request method  = get
url  = /weather
city-code parameter = 4
Status = 404
<?xml version="1.0" encoding="UTF-8"?>
<weather>
	<name>city 4</name>
	<todayTemp>10</todayTemp>
</weather>
request method  = post
url  = /Geo-location
request method  = post
url  = /Geo-location
request method  = post
url  = /Geo-location
request method  = post
url  = /Geo-location
request method  = post
url  = /Geo-location
request method  = post
url  = /Geo-location
request method  = post
url  = /Geo-location
json type detected
json object ={"zip" : 123456 }
Status = 404
{
	"timeZone" : "+1:00"
}
request method  = post
url  = /Geo-location
json type detected
json object ={"zip" : 345678 }
Status = 404
{
	"timeZone" : "+5:30"
}
request method  = post
url  = /Geo-location
json type detected
json object ={"zip" :234567 }
Status = 404
<?xml version="1.0" encoding="UTF-8"?>
<time>
	<timeZone>-3:30</timeZone>
</weather>
request method  = post
url  = /Geo-location
json type detected
json object ={"zip" :234567 }
Status = 404
<?xml version="1.0" encoding="UTF-8"?>
<time>
	<timeZone>-3:30</timeZone>
</time>
request method  = post
url  = /Geo-location
json type detected
json object ={"zip" :456789 }
Status = 404
<?xml version="1.0" encoding="UTF-8"?>
<time>
	<timeZone>+4:30</timeZone>
</time>
request method  = post
url  = /amir
p parameter = 9
q parameter = 8
request method  = post
url  = /amir
p parameter = 9
q parameter = 8
Status = 404
<?xml version="1.0" encoding="UTF-8"?>
<amir> 
	<amir2>2</amir2>
</amir>
request method  = post
url  = /amir
json type detected
json object ={	"a": "salam",	"b" : [true,true,false,true],	"c" : ["salamati, man khobam", " hello", " ki"],	"d" : 6,	"e" : {		"a": 5,		"b" : [88,99],		"c" : [88,99,100],		"d" : [88],		"f" : {			"a" : "c"		},		"h": [			{				"a" : 33,				"b": [40],				"c": {}			}			]	}		}
Status = 404
{
	"value1" : 1,
	"value2" : "vals"
}
request method  = post
url  = /amir
json type detected
json object ={"b" : [true,true,false,true],	"c" : ["salamati, man khobam", " hello", " ki"]}
Status = 404
<?xml version="1.0" encoding="UTF-8"?>
<amir>
  <number>2</number>
</amir>
request method  = get
url  = /asere
Status = 404
{
	"value1" : 1,
	"value2" : "vals"
}
request method  = get
url  = /asere
q parameter = 8
Status = 404
<?xml version="1.0" encoding="UTF-8"?>
<note>
  <to>Tove</to>
  <from>Jani</from>
  <heading>Reminder</heading>
  <body>Don't forget me this weekend!</body>
</note>
request method  = post
url  = /amir
json type detected
json object ={"b" : [true,true,false,true],	"c" : ["salamati, man khobam", " hello", " ki"]}
Status = 404
<?xml version="1.0" encoding="UTF-8"?>
<amir>
  <number>2</number>
</amir>
request method  = post
url  = /amir
json type detected
json object ={	"a": "salam",	"b" : [true,true,false,true],	"c" : ["salamati, man khobam", " hello", " ki"],	"d" : 6,	"e" : {		"a": 5,		"b" : [88,99],		"c" : [88,99,100],		"d" : [88],		"f" : {			"a" : "c"		},		"h": [			{				"a" : 33,				"b": [40],				"c": {}			}			]	}		}
Status = 404
{
	"value1" : 1,
	"value2" : "vals"
}
request method  = post
url  = /amir
p parameter = 9
q parameter = 8
Status = 404
<?xml version="1.0" encoding="UTF-8"?>
<amir> 
	<amir2>2</amir2>
</amir>
request method  = get
url  = /asere
q parameter = 8
Status = 404
<?xml version="1.0" encoding="UTF-8"?>
<note>
  <to>Tove</to>
  <from>Jani</from>
  <heading>Reminder</heading>
  <body>Don't forget me this weekend!</body>
</note>
request method  = get
url  = /asere
Status = 404
{
	"value1" : 1,
	"value2" : "vals"
}
request method  = get
url  = /weather
city-code parameter = 1
Status = 404
{
	"name" : "city 1",
	"todayTemp" : 23
}
request method  = get
url  = /weather
city-code parameter = 2
Status = 404
<?xml version="1.0" encoding="UTF-8"?>
<weather>
	<name>city 2</name>
	<todayTemp>13</todayTemp>
</weather>
request method  = get
url  = /weather
city-code parameter = 3
Status = 404
{
	"name" : "city 3",
	"todayTemp" : 29
}
request method  = get
url  = /weather
city-code parameter = 4
Status = 404
<?xml version="1.0" encoding="UTF-8"?>
<weather>
	<name>city 4</name>
	<todayTemp>10</todayTemp>
</weather>
request method  = post
url  = /Geo-location
json type detected
json object ={"zip" : 123456 }
Status = 404
{
	"timeZone" : "+1:00"
}
request method  = post
url  = /Geo-location
json type detected
json object ={"zip" :234567 }
Status = 404
<?xml version="1.0" encoding="UTF-8"?>
<time>
	<timeZone>-3:30</timeZone>
</time>
request method  = post
url  = /Geo-location
json type detected
json object ={"zip" : 345678 }
Status = 404
{
	"timeZone" : "+5:30"
}
request method  = post
url  = /Geo-location
json type detected
json object ={"zip" :456789 }
Status = 404
<?xml version="1.0" encoding="UTF-8"?>
<time>
	<timeZone>+4:30</timeZone>
</time>
request method  = post
url  = /amir
json type detected
json object ={"b" : [true,true,false,true],	"c" : ["salamati, man khobam", " hello", " ki"]}
Status = 404
<?xml version="1.0" encoding="UTF-8"?>
<amir>
  <number>2</number>
</amir>
request method  = post
url  = /amir
json type detected
json object ={	"a": "salam",	"b" : [true,true,false,true],	"c" : ["salamati, man khobam", " hello", " ki"],	"d" : 6,	"e" : {		"a": 5,		"b" : [88,99],		"c" : [88,99,100],		"d" : [88],		"f" : {			"a" : "c"		},		"h": [			{				"a" : 33,				"b": [40],				"c": {}			}			]	}		}
Status = 404
{
	"value1" : 1,
	"value2" : "vals"
}
request method  = post
url  = /amir
p parameter = 9
q parameter = 8
Status = 404
<?xml version="1.0" encoding="UTF-8"?>
<amir> 
	<amir2>2</amir2>
</amir>
request method  = get
url  = /asere
q parameter = 8
Status = 404
<?xml version="1.0" encoding="UTF-8"?>
<note>
  <to>Tove</to>
  <from>Jani</from>
  <heading>Reminder</heading>
  <body>Don't forget me this weekend!</body>
</note>
request method  = get
url  = /asere
Status = 404
{
	"value1" : 1,
	"value2" : "vals"
}
request method  = get
url  = /weather
city-code parameter = 1
Status = 404
{
	"name" : "city 1",
	"todayTemp" : 23
}
request method  = get
url  = /weather
city-code parameter = 2
Status = 404
<?xml version="1.0" encoding="UTF-8"?>
<weather>
	<name>city 2</name>
	<todayTemp>13</todayTemp>
</weather>
request method  = get
url  = /weather
city-code parameter = 3
Status = 404
{
	"name" : "city 3",
	"todayTemp" : 29
}
request method  = get
url  = /weather
city-code parameter = 4
Status = 404
<?xml version="1.0" encoding="UTF-8"?>
<weather>
	<name>city 4</name>
	<todayTemp>10</todayTemp>
</weather>
request method  = post
url  = /Geo-location
json type detected
json object ={"zip" : 123456 }
Status = 404
{
	"timeZone" : "+1:00"
}
request method  = post
url  = /Geo-location
json type detected
json object ={"zip" :234567 }
Status = 404
<?xml version="1.0" encoding="UTF-8"?>
<time>
	<timeZone>-3:30</timeZone>
</time>
request method  = post
url  = /Geo-location
json type detected
json object ={"zip" : 345678 }
Status = 404
{
	"timeZone" : "+5:30"
}
request method  = post
url  = /Geo-location
json type detected
json object ={"zip" :456789 }
Status = 404
<?xml version="1.0" encoding="UTF-8"?>
<time>
	<timeZone>+4:30</timeZone>
</time>
request method  = post
url  = /amir
json type detected
json object ={"b" : [true,true,false,true],	"c" : ["salamati, man khobam", " hello", " ki"]}
Status = 404
<?xml version="1.0" encoding="UTF-8"?>
<amir>
  <number>2</number>
</amir>
request method  = post
url  = /amir
json type detected
json object ={	"a": "salam",	"b" : [true,true,false,true],	"c" : ["salamati, man khobam", " hello", " ki"],	"d" : 6,	"e" : {		"a": 5,		"b" : [88,99],		"c" : [88,99,100],		"d" : [88],		"f" : {			"a" : "c"		},		"h": [			{				"a" : 33,				"b": [40],				"c": {}			}			]	}		}
Status = 404
{
	"value1" : 1,
	"value2" : "vals"
}
request method  = post
url  = /amir
p parameter = 9
q parameter = 8
Status = 404
<?xml version="1.0" encoding="UTF-8"?>
<amir> 
	<amir2>2</amir2>
</amir>
request method  = get
url  = /asere
q parameter = 8
Status = 404
<?xml version="1.0" encoding="UTF-8"?>
<note>
  <to>Tove</to>
  <from>Jani</from>
  <heading>Reminder</heading>
  <body>Don't forget me this weekend!</body>
</note>
request method  = get
url  = /asere
Status = 404
{
	"value1" : 1,
	"value2" : "vals"
}
request method  = get
url  = /weather
city-code parameter = 1
Status = 404
{
	"name" : "city 1",
	"todayTemp" : 23
}
request method  = get
url  = /weather
city-code parameter = 2
Status = 404
<?xml version="1.0" encoding="UTF-8"?>
<weather>
	<name>city 2</name>
	<todayTemp>13</todayTemp>
</weather>
request method  = get
url  = /weather
city-code parameter = 3
Status = 404
{
	"name" : "city 3",
	"todayTemp" : 29
}
request method  = get
url  = /weather
city-code parameter = 4
Status = 404
<?xml version="1.0" encoding="UTF-8"?>
<weather>
	<name>city 4</name>
	<todayTemp>10</todayTemp>
</weather>
request method  = post
url  = /Geo-location
json type detected
json object ={"zip" : 123456 }
Status = 404
{
	"timeZone" : "+1:00"
}
request method  = post
url  = /Geo-location
json type detected
json object ={"zip" :234567 }
Status = 404
<?xml version="1.0" encoding="UTF-8"?>
<time>
	<timeZone>-3:30</timeZone>
</time>
request method  = post
url  = /Geo-location
json type detected
json object ={"zip" : 345678 }
Status = 404
{
	"timeZone" : "+5:30"
}
request method  = post
url  = /Geo-location
json type detected
json object ={"zip" :456789 }
Status = 404
<?xml version="1.0" encoding="UTF-8"?>
<time>
	<timeZone>+4:30</timeZone>
</time>
